(kicad_wks (version 20210606) (generator pl_editor)
  (setup (textsize 1.5 1.5)(linewidth 0.15)(textlinewidth 0.15)
  (left_margin 10)(right_margin 10)(top_margin 10)(bottom_margin 10))
  (rect (name "") (start 110.0022 20.0072) (end 2.0002 2.0002) (comment "rect around the title block")
)
  (rect (name "") (start 0 0 ltcorner) (end 0 0) (repeat 2) (incrx 2) (incry 2))
  (line (name "") (start 50 2 ltcorner) (end 50 0 ltcorner) (repeat 30) (incrx 50))
  (tbtext "1" (name "") (pos 25 1 ltcorner) (font (size 1.3 1.3)) (repeat 100) (incrx 50))
  (line (name "") (start 50 2 lbcorner) (end 50 0 lbcorner) (repeat 30) (incrx 50))
  (tbtext "1" (name "") (pos 25 1 lbcorner) (font (size 1.3 1.3)) (repeat 100) (incrx 50))
  (line (name "") (start 0 50 ltcorner) (end 2 50 ltcorner) (repeat 30) (incry 50))
  (tbtext "A" (name "") (pos 1 25 ltcorner) (font (size 1.3 1.3)) (justify center) (repeat 100) (incry 50))
  (line (name "") (start 0 50 rtcorner) (end 2 50 rtcorner) (repeat 30) (incry 50))
  (tbtext "A" (name "") (pos 1 25 rtcorner) (font (size 1.3 1.3)) (justify center) (repeat 100) (incry 50))
  (tbtext "Last edited: ${ISSUE_DATE}" (name "") (pos 76.0002 3.9002) (font bold))
  (line (name "") (start 110.0002 5.5002) (end 2.0002 5.5002))
  (tbtext "Rev: ${REVISION}" (name "") (pos 2.5002 16.1502) (font (size 2 2) bold italic) (justify right))
  (tbtext "Sheet size: ${PAPER}" (name "") (pos 109.0002 3.9002) (font bold) (comment "Paper format name")
)
  (tbtext "Page: ${#}/${##}" (name "") (pos 3.0002 4.1002) (font bold) (justify right) (comment "Sheet id")
)
  (tbtext "Project: ${TITLE}" (name "") (pos 109.5002 16.2002) (font (size 2 2) bold italic))
  (line (name "") (start 110.0002 12.5002) (end 2.0002 12.5002))
  (tbtext "Sheet: ${SHEETNAME}" (name "") (pos 109 9) (font (size 1.5 1.5) bold italic))
  (tbtext "Drawn by: ${COMMENT1}" (name "") (pos 3.0002 9.0002) (font (size 1.5 1.5) bold italic) (justify right) (comment "Comment 0")
)
  (line (name "") (start 77.0002 5.5002) (end 77.0022 2.0072))
  (line (name "") (start 27.0022 5.5072) (end 27.0022 2.0072))
)
