<?xml version="1.0" standalone="no"?>
<!DOCTYPE svg PUBLIC "-//W3C//DTD SVG 20010904//EN"
 "http://www.w3.org/TR/2001/REC-SVG-20010904/DTD/svg10.dtd">
<svg version="1.0" xmlns="http://www.w3.org/2000/svg"
 width="426.000000pt" height="284.000000pt" viewBox="0 0 426.000000 284.000000"
 preserveAspectRatio="xMidYMid meet">
<metadata>
Created by potrace 1.15, written by Peter Selinger 2001-2017
</metadata>
<g transform="translate(0.000000,284.000000) scale(0.100000,-0.100000)"
fill="#000000" stroke="none">
<path d="M3896 2761 l-290 -76 -53 -65 c-77 -93 -122 -163 -146 -228 -19 -51
-22 -86 -27 -328 -5 -267 -5 -271 -30 -307 -36 -52 -88 -78 -158 -78 -54 0
-74 8 -337 141 -246 124 -290 143 -365 157 -172 31 -358 1 -535 -87 -215 -106
-344 -243 -474 -504 -89 -177 -115 -257 -132 -409 -17 -160 -37 -242 -79 -325
-75 -147 -181 -251 -325 -317 -203 -94 -430 -83 -626 31 -91 53 -205 172 -253
264 l-40 75 -12 -30 c-7 -17 -13 -65 -14 -107 0 -88 22 -161 71 -228 24 -33
28 -44 18 -56 -9 -11 -8 -19 7 -35 29 -32 147 -107 206 -131 66 -27 63 -25 49
-42 -7 -8 -8 -17 -3 -20 26 -16 173 -28 298 -24 130 4 141 3 137 -13 -4 -15 1
-17 39 -12 75 10 225 51 290 80 112 49 180 95 265 176 46 44 85 78 87 76 2 -2
31 -71 64 -154 l60 -150 625 -3 626 -2 -21 47 c-38 89 -75 113 -173 113 -55 0
-76 5 -128 33 l-62 32 168 3 c92 1 167 5 167 8 0 2 -11 26 -24 53 -31 60 -63
81 -133 88 -31 4 -75 17 -98 30 -40 22 -43 26 -53 89 -6 37 -23 91 -37 120
l-26 53 38 58 c46 69 93 103 143 103 21 0 98 -25 186 -60 254 -103 292 -113
430 -114 l120 -1 -13 -90 c-18 -130 -18 -131 10 -111 61 44 59 46 51 -51 l-7
-88 36 28 c20 15 39 27 42 27 4 0 3 -36 -1 -80 -3 -44 -3 -80 1 -80 4 0 21 12
38 26 l31 26 41 -128 41 -129 207 -3 c114 -1 207 1 207 5 0 4 -14 35 -32 68
l-31 61 -99 35 c-138 48 -131 59 42 59 77 0 140 3 140 8 0 4 -13 29 -28 57
-25 45 -33 52 -97 76 l-70 26 2 270 2 269 36 55 c51 75 79 132 104 213 20 65
21 88 21 555 l0 487 100 106 c96 102 100 108 100 151 0 25 5 47 11 49 10 3 38
172 39 231 0 25 -3 27 -37 26 -21 -1 -168 -36 -327 -78z"/>
</g>
</svg>
