(footprint "TT7-10KC8-3" (version 20211014) (generator pcbnew)
  (layer "F.Cu")
  (tedit 59FED5CC)
  (descr "Through hole straight pin header, 1x02, 2.54mm pitch, single row")
  (tags "Through hole pin header THT 1x02 2.54mm single row")
  (attr through_hole)
  (fp_text reference "REF**" (at 0 -2.33) (layer "F.SilkS")
    (effects (font (size 1 1) (thickness 0.15)))
    (tstamp 9f449d09-37db-4679-b4e5-533258de06b2)
  )
  (fp_text value "TT7-10KC8-3" (at 0 4.87) (layer "F.Fab")
    (effects (font (size 1 1) (thickness 0.15)))
    (tstamp 38fef59b-958b-45b7-8820-2d51d2463f7b)
  )
  (fp_text user "${REFERENCE}" (at 0 1.27 90) (layer "F.Fab")
    (effects (font (size 1 1) (thickness 0.15)))
    (tstamp 37dcc22b-aaa5-40bf-8441-c3e442439a19)
  )
  (fp_line (start -1.33 0) (end -1.33 -1.33) (layer "F.SilkS") (width 0.12) (tstamp 17065d0c-b729-4411-a0ba-609477102cae))
  (fp_line (start -1.33 3.87) (end 1.33 3.87) (layer "F.SilkS") (width 0.12) (tstamp 356cd7c3-c732-46f6-901c-08ed3018653a))
  (fp_line (start -1.33 1.27) (end -1.33 3.87) (layer "F.SilkS") (width 0.12) (tstamp 5039dc18-b6d0-4711-8037-7004e69e6695))
  (fp_line (start -1.33 1.27) (end 1.33 1.27) (layer "F.SilkS") (width 0.12) (tstamp acc4628e-df19-42c5-8749-bf9d024c5546))
  (fp_line (start -1.33 -1.33) (end 0 -1.33) (layer "F.SilkS") (width 0.12) (tstamp c8d9f458-d8ec-4ce7-837b-0c157bcfe850))
  (fp_line (start 1.33 1.27) (end 1.33 3.87) (layer "F.SilkS") (width 0.12) (tstamp cb13b7ee-2d34-4ee0-a235-16f903038f41))
  (fp_line (start 1.8 -1.8) (end -1.8 -1.8) (layer "F.CrtYd") (width 0.05) (tstamp 0431df18-ccfa-43ed-988f-ccfa94f64588))
  (fp_line (start 1.8 4.35) (end 1.8 -1.8) (layer "F.CrtYd") (width 0.05) (tstamp 39e4174d-3678-46b7-8a86-e101b522ee01))
  (fp_line (start -1.8 -1.8) (end -1.8 4.35) (layer "F.CrtYd") (width 0.05) (tstamp 4c579f0c-22ef-46f1-9321-ced1932e9de8))
  (fp_line (start -1.8 4.35) (end 1.8 4.35) (layer "F.CrtYd") (width 0.05) (tstamp bbe4fc65-e3ef-4f3e-a8f2-a145d26dd2d0))
  (fp_line (start 1.27 3.81) (end -1.27 3.81) (layer "F.Fab") (width 0.1) (tstamp 4862cb63-0472-41cc-a8df-0b9bad363bce))
  (fp_line (start -1.27 -0.635) (end -0.635 -1.27) (layer "F.Fab") (width 0.1) (tstamp 568e96c1-5e2a-4c04-bbbf-fe7e31835e6c))
  (fp_line (start -1.27 3.81) (end -1.27 -0.635) (layer "F.Fab") (width 0.1) (tstamp 56968ee9-c95b-4291-bcb7-1793b34b76a2))
  (fp_line (start -0.635 -1.27) (end 1.27 -1.27) (layer "F.Fab") (width 0.1) (tstamp 6febb08f-4976-439b-a073-38d3b74479d4))
  (fp_line (start 1.27 -1.27) (end 1.27 3.81) (layer "F.Fab") (width 0.1) (tstamp eecb46da-29c2-41e8-8b5f-45913974fea0))
  (pad "1" thru_hole circle (at 0 0) (size 1.2 1.2) (drill 0.45) (layers *.Cu *.Mask) (tstamp 2b0a2100-e129-47ab-bd5f-042914e5b9df))
  (pad "2" thru_hole circle (at 0 2.54) (size 1.2 1.2) (drill 0.45) (layers *.Cu *.Mask) (tstamp 09ceeb43-9fac-40b4-a3bb-4f36cdd20ed2))
  (model "${KICAD6_3DMODEL_DIR}/Connector_PinHeader_2.54mm.3dshapes/PinHeader_1x02_P2.54mm_Vertical.wrl"
    (offset (xyz 0 0 0))
    (scale (xyz 1 1 1))
    (rotate (xyz 0 0 0))
  )
)
